<svg width="40" height="40" viewBox="0 0 40 40" fill="none" xmlns="http://www.w3.org/2000/svg">
<g filter="url(#filter0_dd)">
<path d="M9.16129 0.5C6.31079 0.5 4 2.44973 4 4.85484V23.1452C4 25.5503 6.31079 27.5 9.16129 27.5H17.0201H20H22.9799H30.8387C33.6892 27.5 36 25.5503 36 23.1452V4.85484C36 2.44973 33.6892 0.5 30.8387 0.5H9.16129Z" fill="#8C8C8C"/>
</g>
<path d="M15.2287 6C15.9507 6 16.5359 6.60003 16.5359 7.34021L16.5621 8.68042C16.6832 9.29215 17.2107 9.75258 17.8431 9.75258H21.7647C22.3971 9.75258 22.9246 9.29215 23.0457 8.68042L23.0719 7.34021C23.0719 6.60003 23.6571 6 24.379 6H28.6928C29.4148 6 30 6.60003 30 7.34021V13.2371H10V7.34021C10 6.60003 10.5852 6 11.3072 6H15.2287Z" fill="#F9F9F9"/>
<path d="M10 16V19.3667C10 20.1069 10.5852 20.7069 11.3072 20.7069H28.6928C29.4148 20.7069 30 20.1069 30 19.3667V16H10Z" fill="#F9F9F9"/>
<defs>
<filter id="filter0_dd" x="0" y="0.5" width="40" height="39" filterUnits="userSpaceOnUse" color-interpolation-filters="sRGB">
<feFlood flood-opacity="0" result="BackgroundImageFix"/>
<feColorMatrix in="SourceAlpha" type="matrix" values="0 0 0 0 0 0 0 0 0 0 0 0 0 0 0 0 0 0 127 0"/>
<feMorphology radius="4" operator="erode" in="SourceAlpha" result="effect1_dropShadow"/>
<feOffset dy="8"/>
<feGaussianBlur stdDeviation="4"/>
<feColorMatrix type="matrix" values="0 0 0 0 0.0941176 0 0 0 0 0.152941 0 0 0 0 0.294118 0 0 0 0.08 0"/>
<feBlend mode="normal" in2="BackgroundImageFix" result="effect1_dropShadow"/>
<feColorMatrix in="SourceAlpha" type="matrix" values="0 0 0 0 0 0 0 0 0 0 0 0 0 0 0 0 0 0 127 0"/>
<feMorphology radius="4" operator="erode" in="SourceAlpha" result="effect2_dropShadow"/>
<feOffset dy="4"/>
<feGaussianBlur stdDeviation="3"/>
<feColorMatrix type="matrix" values="0 0 0 0 0.0941176 0 0 0 0 0.152941 0 0 0 0 0.294118 0 0 0 0.12 0"/>
<feBlend mode="normal" in2="effect1_dropShadow" result="effect2_dropShadow"/>
<feBlend mode="normal" in="SourceGraphic" in2="effect2_dropShadow" result="shape"/>
</filter>
</defs>
</svg>
