<svg width="40" height="40" viewBox="0 0 40 40" fill="none" xmlns="http://www.w3.org/2000/svg">
<g filter="url(#filter0_dd)">
<path d="M9.16129 0.5C6.31079 0.5 4 2.44973 4 4.85484V23.1452C4 25.5503 6.31079 27.5 9.16129 27.5H17.0201H20H22.9799H30.8387C33.6892 27.5 36 25.5503 36 23.1452V4.85484C36 2.44973 33.6892 0.5 30.8387 0.5H9.16129Z" fill="#142F3A"/>
</g>
<path d="M16.7287 8.84021H16.7287L16.7288 8.84801L16.7497 10.1882L16.7503 10.2236L16.7558 10.2586C16.8756 11.0147 17.4346 11.7526 18.2745 11.7526H21.4117C22.2516 11.7526 22.8107 11.0147 22.9304 10.2586L22.9359 10.2236L22.9365 10.1882L22.9574 8.84801L22.9575 8.84801V8.84021C22.9575 8.2536 23.3102 8 23.5032 8H26.9543C27.1473 8 27.5 8.2536 27.5 8.84021V14.2371H12.5V8.84021C12.5 8.2536 12.8527 8 13.0457 8H16.183C16.376 8 16.7287 8.2536 16.7287 8.84021ZM12.5 19.1598V16.2931H27.5V19.1598C27.5 19.7464 27.1473 20 26.9543 20H13.0457C12.8527 20 12.5 19.7464 12.5 19.1598Z" stroke="#F1F1F1"/>
<defs>
<filter id="filter0_dd" x="0" y="0.5" width="40" height="39" filterUnits="userSpaceOnUse" color-interpolation-filters="sRGB">
<feFlood flood-opacity="0" result="BackgroundImageFix"/>
<feColorMatrix in="SourceAlpha" type="matrix" values="0 0 0 0 0 0 0 0 0 0 0 0 0 0 0 0 0 0 127 0"/>
<feMorphology radius="4" operator="erode" in="SourceAlpha" result="effect1_dropShadow"/>
<feOffset dy="8"/>
<feGaussianBlur stdDeviation="4"/>
<feColorMatrix type="matrix" values="0 0 0 0 0.0941176 0 0 0 0 0.152941 0 0 0 0 0.294118 0 0 0 0.08 0"/>
<feBlend mode="normal" in2="BackgroundImageFix" result="effect1_dropShadow"/>
<feColorMatrix in="SourceAlpha" type="matrix" values="0 0 0 0 0 0 0 0 0 0 0 0 0 0 0 0 0 0 127 0"/>
<feMorphology radius="4" operator="erode" in="SourceAlpha" result="effect2_dropShadow"/>
<feOffset dy="4"/>
<feGaussianBlur stdDeviation="3"/>
<feColorMatrix type="matrix" values="0 0 0 0 0.0941176 0 0 0 0 0.152941 0 0 0 0 0.294118 0 0 0 0.12 0"/>
<feBlend mode="normal" in2="effect1_dropShadow" result="effect2_dropShadow"/>
<feBlend mode="normal" in="SourceGraphic" in2="effect2_dropShadow" result="shape"/>
</filter>
</defs>
</svg>
